module github.com/NU-LXP/datasource-skeleton-error

go 1.15

require (
	github.com/jackc/pgx v3.6.2+incompatible
	github.com/pkg/errors v0.9.1 // indirect
	golang.org/x/crypto v0.0.0-20210220033148-5ea612d1eb83 // indirect
	golang.org/x/text v0.3.5 // indirect
)
